^C:\USERS\MARIA\SOURCE\REPOS\CONVDLL\CONVDLL\STDAFX.CPP
C:\USERS\MARIA\SOURCE\REPOS\CONVDLL\CONVDLL\DEBUG\CONVDLL.PCH
C:\USERS\MARIA\SOURCE\REPOS\CONVDLL\CONVDLL\DEBUG\VC141.PDB
C:\USERS\MARIA\SOURCE\REPOS\CONVDLL\CONVDLL\DEBUG\VC141.IDB
C:\USERS\MARIA\SOURCE\REPOS\CONVDLL\CONVDLL\DEBUG\STDAFX.OBJ
^C:\USERS\MARIA\SOURCE\REPOS\CONVDLL\CONVDLL\CONVDLL.CPP|C:\USERS\MARIA\SOURCE\REPOS\CONVDLL\CONVDLL\DLLMAIN.CPP
C:\USERS\MARIA\SOURCE\REPOS\CONVDLL\CONVDLL\DEBUG\VC141.PDB
C:\USERS\MARIA\SOURCE\REPOS\CONVDLL\CONVDLL\DEBUG\VC141.IDB
C:\USERS\MARIA\SOURCE\REPOS\CONVDLL\CONVDLL\DEBUG\DLLMAIN.OBJ
^C:\USERS\MARIA\SOURCE\REPOS\CONVDLL\CONVDLL\DLLMAIN.CPP
C:\USERS\MARIA\SOURCE\REPOS\CONVDLL\CONVDLL\DEBUG\DLLMAIN.OBJ
^C:\USERS\MARIA\SOURCE\REPOS\CONVDLL\CONVDLL\CONVDLL.CPP
C:\USERS\MARIA\SOURCE\REPOS\CONVDLL\CONVDLL\DEBUG\VC141.PDB
C:\USERS\MARIA\SOURCE\REPOS\CONVDLL\CONVDLL\DEBUG\VC141.IDB
C:\USERS\MARIA\SOURCE\REPOS\CONVDLL\CONVDLL\DEBUG\CONVDLL.OBJ
