^C:\Users\maria\source\repos\ConvDll\ConvDll\ConvDll.vcxproj
C:\Users\maria\source\repos\ConvDll\Debug\ConvDll.lib
C:\Users\maria\source\repos\ConvDll\Debug\ConvDll.exp
^C:\Users\maria\source\repos\ConvDll\ConvDll\ConvDll.vcxproj
C:\Users\maria\source\repos\ConvDll\Debug\ConvDll.lib
C:\Users\maria\source\repos\ConvDll\Debug\ConvDll.exp
^C:\Users\maria\source\repos\ConvDll\ConvDll\ConvDll.vcxproj
C:\Users\maria\source\repos\ConvDll\Debug\ConvDll.lib
C:\Users\maria\source\repos\ConvDll\Debug\ConvDll.exp
